0,udp,private,SF,28,0,0,3,0,0,0,0,0,0,0,0,0,0,0,0,0,0,7,7,0.00,0.00,0.00,0.00,1.00,0.00,0.00,79,7,0.09,0.05,0.09,0.00,0.00,0.00,0.00,0.00,teardrop.
0,udp,private,SF,28,0,0,3,0,0,0,0,0,0,0,0,0,0,0,0,0,0,8,8,0.00,0.00,0.00,0.00,1.00,0.00,0.00,80,8,0.10,0.05,0.10,0.00,0.00,0.00,0.00,0.00,teardrop.
0,udp,private,SF,28,0,0,3,0,0,0,0,0,0,0,0,0,0,0,0,0,0,9,9,0.00,0.00,0.00,0.00,1.00,0.00,0.00,81,9,0.11,0.05,0.11,0.00,0.00,0.00,0.00,0.00,teardrop.
0,udp,private,SF,28,0,0,3,0,0,0,0,0,0,0,0,0,0,0,0,0,0,10,10,0.00,0.00,0.00,0.00,1.00,0.00,0.00,82,10,0.12,0.05,0.12,0.00,0.00,0.00,0.00,0.00,teardrop.
0,udp,private,SF,28,0,0,3,0,0,0,0,0,0,0,0,0,0,0,0,0,0,11,11,0.00,0.00,0.00,0.00,1.00,0.00,0.00,83,11,0.13,0.05,0.13,0.00,0.00,0.00,0.00,0.00,teardrop.
0,udp,private,SF,28,0,0,3,0,0,0,0,0,0,0,0,0,0,0,0,0,0,12,12,0.00,0.00,0.00,0.00,1.00,0.00,0.00,84,12,0.14,0.05,0.14,0.00,0.00,0.00,0.00,0.00,teardrop.
0,udp,private,SF,28,0,0,3,0,0,0,0,0,0,0,0,0,0,0,0,0,0,13,13,0.00,0.00,0.00,0.00,1.00,0.00,0.00,85,13,0.15,0.05,0.15,0.00,0.00,0.00,0.00,0.00,teardrop.
0,udp,private,SF,28,0,0,3,0,0,0,0,0,0,0,0,0,0,0,0,0,0,14,14,0.00,0.00,0.00,0.00,1.00,0.00,0.00,86,14,0.16,0.05,0.16,0.00,0.00,0.00,0.00,0.00,teardrop.
0,udp,private,SF,28,0,0,3,0,0,0,0,0,0,0,0,0,0,0,0,0,0,15,15,0.00,0.00,0.00,0.00,1.00,0.00,0.00,87,15,0.17,0.05,0.17,0.00,0.00,0.00,0.00,0.00,teardrop.
0,udp,private,SF,28,0,0,3,0,0,0,0,0,0,0,0,0,0,0,0,0,0,16,16,0.00,0.00,0.00,0.00,1.00,0.00,0.00,88,16,0.18,0.05,0.18,0.00,0.00,0.00,0.00,0.00,teardrop.
0,udp,private,SF,28,0,0,3,0,0,0,0,0,0,0,0,0,0,0,0,0,0,23,23,0.00,0.00,0.00,0.00,1.00,0.00,0.00,95,23,0.24,0.04,0.24,0.00,0.00,0.00,0.00,0.00,teardrop.
0,udp,private,SF,28,0,0,3,0,0,0,0,0,0,0,0,0,0,0,0,0,0,24,24,0.00,0.00,0.00,0.00,1.00,0.00,0.00,96,24,0.25,0.04,0.25,0.00,0.00,0.00,0.00,0.00,teardrop.
0,udp,private,SF,28,0,0,3,0,0,0,0,0,0,0,0,0,0,0,0,0,0,25,25,0.00,0.00,0.00,0.00,1.00,0.00,0.00,97,25,0.26,0.04,0.26,0.00,0.00,0.00,0.00,0.00,teardrop.
0,udp,private,SF,28,0,0,3,0,0,0,0,0,0,0,0,0,0,0,0,0,0,26,26,0.00,0.00,0.00,0.00,1.00,0.00,0.00,98,26,0.27,0.04,0.27,0.00,0.00,0.00,0.00,0.00,teardrop.
0,udp,private,SF,28,0,0,3,0,0,0,0,0,0,0,0,0,0,0,0,0,0,27,27,0.00,0.00,0.00,0.00,1.00,0.00,0.00,99,27,0.27,0.04,0.27,0.00,0.00,0.00,0.00,0.00,teardrop.
0,udp,private,SF,28,0,0,3,0,0,0,0,0,0,0,0,0,0,0,0,0,0,28,28,0.00,0.00,0.00,0.00,1.00,0.00,0.00,100,28,0.28,0.04,0.28,0.00,0.00,0.00,0.00,0.00,teardrop.
0,udp,private,SF,28,0,0,3,0,0,0,0,0,0,0,0,0,0,0,0,0,0,29,29,0.00,0.00,0.00,0.00,1.00,0.00,0.00,101,29,0.29,0.04,0.29,0.00,0.00,0.00,0.00,0.00,teardrop.
0,udp,private,SF,28,0,0,3,0,0,0,0,0,0,0,0,0,0,0,0,0,0,30,30,0.00,0.00,0.00,0.00,1.00,0.00,0.00,102,30,0.29,0.04,0.29,0.00,0.00,0.00,0.00,0.00,teardrop.
0,udp,private,SF,28,0,0,3,0,0,0,0,0,0,0,0,0,0,0,0,0,0,31,31,0.00,0.00,0.00,0.00,1.00,0.00,0.00,103,31,0.30,0.04,0.30,0.00,0.00,0.00,0.00,0.00,teardrop.
0,udp,private,SF,28,0,0,3,0,0,0,0,0,0,0,0,0,0,0,0,0,0,32,32,0.00,0.00,0.00,0.00,1.00,0.00,0.00,104,32,0.31,0.04,0.31,0.00,0.00,0.00,0.00,0.00,teardrop.
0,udp,private,SF,28,0,0,3,0,0,0,0,0,0,0,0,0,0,0,0,0,0,33,33,0.00,0.00,0.00,0.00,1.00,0.00,0.00,105,33,0.31,0.04,0.31,0.00,0.00,0.00,0.00,0.00,teardrop.
0,udp,private,SF,28,0,0,3,0,0,0,0,0,0,0,0,0,0,0,0,0,0,34,34,0.00,0.00,0.00,0.00,1.00,0.00,0.00,106,34,0.32,0.04,0.32,0.00,0.00,0.00,0.00,0.00,teardrop.
0,udp,private,SF,28,0,0,3,0,0,0,0,0,0,0,0,0,0,0,0,0,0,35,35,0.00,0.00,0.00,0.00,1.00,0.00,0.00,107,35,0.33,0.04,0.33,0.00,0.00,0.00,0.00,0.00,teardrop.
0,icmp,ecr_i,SF,1480,0,0,1,0,0,0,0,0,0,0,0,0,0,0,0,0,0,1,1,0.00,0.00,0.00,0.00,1.00,0.00,0.00,85,1,0.01,0.05,0.01,0.00,0.00,0.00,0.00,0.00,pod.
0,icmp,ecr_i,SF,1480,0,0,1,0,0,0,0,0,0,0,0,0,0,0,0,0,0,2,2,0.00,0.00,0.00,0.00,1.00,0.00,0.00,86,2,0.02,0.05,0.02,0.00,0.00,0.00,0.00,0.00,pod.
0,icmp,ecr_i,SF,1480,0,0,1,0,0,0,0,0,0,0,0,0,0,0,0,0,0,3,3,0.00,0.00,0.00,0.00,1.00,0.00,0.00,87,3,0.03,0.05,0.03,0.00,0.00,0.00,0.00,0.00,pod.
0,icmp,ecr_i,SF,1480,0,0,1,0,0,0,0,0,0,0,0,0,0,0,0,0,0,4,4,0.00,0.00,0.00,0.00,1.00,0.00,0.00,88,4,0.05,0.05,0.05,0.00,0.00,0.00,0.00,0.00,pod.
0,icmp,ecr_i,SF,1480,0,0,1,0,0,0,0,0,0,0,0,0,0,0,0,0,0,5,5,0.00,0.00,0.00,0.00,1.00,0.00,0.00,89,5,0.06,0.04,0.06,0.00,0.00,0.00,0.00,0.00,pod.
0,icmp,ecr_i,SF,1480,0,0,1,0,0,0,0,0,0,0,0,0,0,0,0,0,0,1,1,0.00,0.00,0.00,0.00,1.00,0.00,0.00,1,13,1.00,0.00,1.00,0.54,0.00,0.00,0.00,0.00,pod.
0,icmp,ecr_i,SF,1480,0,0,1,0,0,0,0,0,0,0,0,0,0,0,0,0,0,2,2,0.00,0.00,0.00,0.00,1.00,0.00,0.00,2,14,1.00,0.00,1.00,0.50,0.00,0.00,0.00,0.00,pod.
0,icmp,ecr_i,SF,1480,0,0,1,0,0,0,0,0,0,0,0,0,0,0,0,0,0,1,3,0.00,0.00,0.00,0.00,1.00,0.00,0.67,1,15,1.00,0.00,1.00,0.53,0.00,0.00,0.00,0.00,pod.
0,icmp,ecr_i,SF,1480,0,0,1,0,0,0,0,0,0,0,0,0,0,0,0,0,0,2,4,0.00,0.00,0.00,0.00,1.00,0.00,0.50,2,16,1.00,0.00,1.00,0.50,0.00,0.00,0.00,0.00,pod.
0,icmp,ecr_i,SF,1480,0,0,1,0,0,0,0,0,0,0,0,0,0,0,0,0,0,1,1,0.00,0.00,0.00,0.00,1.00,0.00,0.00,1,17,1.00,0.00,1.00,0.53,0.00,0.00,0.00,0.00,pod.
0,icmp,ecr_i,SF,1480,0,0,1,0,0,0,0,0,0,0,0,0,0,0,0,0,0,2,2,0.00,0.00,0.00,0.00,1.00,0.00,0.00,2,18,1.00,0.00,1.00,0.50,0.00,0.00,0.00,0.00,pod.
0,icmp,ecr_i,SF,1480,0,0,1,0,0,0,0,0,0,0,0,0,0,0,0,0,0,1,1,0.00,0.00,0.00,0.00,1.00,0.00,0.00,1,19,1.00,0.00,1.00,0.53,0.00,0.00,0.00,0.00,pod.
0,icmp,ecr_i,SF,1480,0,0,1,0,0,0,0,0,0,0,0,0,0,0,0,0,0,2,2,0.00,0.00,0.00,0.00,1.00,0.00,0.00,2,20,1.00,0.00,1.00,0.50,0.00,0.00,0.00,0.00,pod.
0,icmp,tim_i,SF,564,0,0,0,0,0,0,0,0,0,0,0,0,0,0,0,0,0,1,1,0.00,0.00,0.00,0.00,1.00,0.00,0.00,1,1,1.00,0.00,1.00,0.00,0.00,0.00,0.00,0.00,pod.
0,icmp,tim_i,SF,564,0,0,0,0,0,0,0,0,0,0,0,0,0,0,0,0,0,2,2,0.00,0.00,0.00,0.00,1.00,0.00,0.00,2,2,1.00,0.00,1.00,0.00,0.00,0.00,0.00,0.00,pod.
0,icmp,ecr_i,SF,1480,0,0,1,0,0,0,0,0,0,0,0,0,0,0,0,0,0,1,1,0.00,0.00,0.00,0.00,1.00,0.00,0.00,1,1,1.00,0.00,1.00,0.00,0.00,0.00,0.00,0.00,pod.
0,icmp,ecr_i,SF,1480,0,0,1,0,0,0,0,0,0,0,0,0,0,0,0,0,0,2,2,0.00,0.00,0.00,0.00,1.00,0.00,0.00,2,2,1.00,0.00,1.00,0.00,0.00,0.00,0.00,0.00,pod.
0,icmp,ecr_i,SF,1480,0,0,1,0,0,0,0,0,0,0,0,0,0,0,0,0,0,1,3,0.00,0.00,0.00,0.00,1.00,0.00,0.67,1,3,1.00,0.00,1.00,0.67,0.00,0.00,0.00,0.00,pod.
0,icmp,ecr_i,SF,1480,0,0,1,0,0,0,0,0,0,0,0,0,0,0,0,0,0,2,4,0.00,0.00,0.00,0.00,1.00,0.00,0.50,2,4,1.00,0.00,1.00,0.50,0.00,0.00,0.00,0.00,pod.
0,icmp,ecr_i,SF,1480,0,0,1,0,0,0,0,0,0,0,0,0,0,0,0,0,0,1,3,0.00,0.00,0.00,0.00,1.00,0.00,0.67,1,5,1.00,0.00,1.00,0.60,0.00,0.00,0.00,0.00,pod.
0,icmp,ecr_i,SF,1032,0,0,0,0,0,0,0,0,0,0,0,0,0,0,0,0,0,511,511,0.00,0.00,0.00,0.00,1.00,0.00,0.00,158,13,0.08,0.02,0.08,0.00,0.00,0.00,0.00,0.00,smurf.
0,icmp,ecr_i,SF,1032,0,0,0,0,0,0,0,0,0,0,0,0,0,0,0,0,0,511,511,0.00,0.00,0.00,0.00,1.00,0.00,0.00,168,23,0.14,0.02,0.14,0.00,0.00,0.00,0.00,0.00,smurf.
0,icmp,ecr_i,SF,1032,0,0,0,0,0,0,0,0,0,0,0,0,0,0,0,0,0,510,510,0.00,0.00,0.00,0.00,1.00,0.00,0.00,178,33,0.19,0.02,0.19,0.00,0.00,0.00,0.00,0.00,smurf.
0,icmp,ecr_i,SF,1032,0,0,0,0,0,0,0,0,0,0,0,0,0,0,0,0,0,509,509,0.00,0.00,0.00,0.00,1.00,0.00,0.00,188,43,0.23,0.02,0.23,0.00,0.00,0.00,0.00,0.00,smurf.
0,icmp,ecr_i,SF,1032,0,0,0,0,0,0,0,0,0,0,0,0,0,0,0,0,0,511,511,0.00,0.00,0.00,0.00,1.00,0.00,0.00,198,53,0.27,0.02,0.27,0.00,0.00,0.00,0.00,0.00,smurf.
0,icmp,ecr_i,SF,1032,0,0,0,0,0,0,0,0,0,0,0,0,0,0,0,0,0,511,511,0.00,0.00,0.00,0.00,1.00,0.00,0.00,255,255,1.00,0.00,1.00,0.00,0.00,0.00,0.00,0.00,smurf.
0,icmp,ecr_i,SF,1032,0,0,0,0,0,0,0,0,0,0,0,0,0,0,0,0,0,511,511,0.00,0.00,0.00,0.00,1.00,0.00,0.00,255,255,1.00,0.00,1.00,0.00,0.00,0.00,0.00,0.00,smurf.
0,icmp,ecr_i,SF,1032,0,0,0,0,0,0,0,0,0,0,0,0,0,0,0,0,0,511,511,0.00,0.00,0.00,0.00,1.00,0.00,0.00,255,255,1.00,0.00,1.00,0.00,0.00,0.00,0.00,0.00,smurf.
0,icmp,ecr_i,SF,1032,0,0,0,0,0,0,0,0,0,0,0,0,0,0,0,0,0,511,511,0.00,0.00,0.00,0.00,1.00,0.00,0.00,255,255,1.00,0.00,1.00,0.00,0.00,0.00,0.00,0.00,smurf.
0,icmp,ecr_i,SF,1032,0,0,0,0,0,0,0,0,0,0,0,0,0,0,0,0,0,511,511,0.00,0.00,0.00,0.00,1.00,0.00,0.00,255,255,1.00,0.00,1.00,0.00,0.00,0.00,0.00,0.00,smurf.
0,icmp,ecr_i,SF,1032,0,0,0,0,0,0,0,0,0,0,0,0,0,0,0,0,0,511,511,0.00,0.00,0.00,0.00,1.00,0.00,0.00,255,255,1.00,0.00,1.00,0.00,0.00,0.00,0.00,0.00,smurf.
0,icmp,ecr_i,SF,1032,0,0,0,0,0,0,0,0,0,0,0,0,0,0,0,0,0,511,511,0.00,0.00,0.00,0.00,1.00,0.00,0.00,255,255,1.00,0.00,1.00,0.00,0.00,0.00,0.00,0.00,smurf.
0,icmp,ecr_i,SF,1032,0,0,0,0,0,0,0,0,0,0,0,0,0,0,0,0,0,510,510,0.00,0.00,0.00,0.00,1.00,0.00,0.00,255,255,1.00,0.00,1.00,0.00,0.00,0.00,0.00,0.00,smurf.
0,icmp,ecr_i,SF,1032,0,0,0,0,0,0,0,0,0,0,0,0,0,0,0,0,0,511,511,0.00,0.00,0.00,0.00,1.00,0.00,0.00,255,255,1.00,0.00,1.00,0.00,0.00,0.00,0.00,0.00,smurf.
0,icmp,ecr_i,SF,1032,0,0,0,0,0,0,0,0,0,0,0,0,0,0,0,0,0,511,511,0.00,0.00,0.00,0.00,1.00,0.00,0.00,255,255,1.00,0.00,1.00,0.00,0.00,0.00,0.00,0.00,smurf.
0,icmp,ecr_i,SF,1032,0,0,0,0,0,0,0,0,0,0,0,0,0,0,0,0,0,511,511,0.00,0.00,0.00,0.00,1.00,0.00,0.00,255,255,1.00,0.00,1.00,0.00,0.00,0.00,0.00,0.00,smurf.
0,icmp,ecr_i,SF,1032,0,0,0,0,0,0,0,0,0,0,0,0,0,0,0,0,0,511,511,0.00,0.00,0.00,0.00,1.00,0.00,0.00,255,255,1.00,0.00,1.00,0.00,0.00,0.00,0.00,0.00,smurf.
0,icmp,ecr_i,SF,1032,0,0,0,0,0,0,0,0,0,0,0,0,0,0,0,0,0,510,510,0.00,0.00,0.00,0.00,1.00,0.00,0.00,255,255,1.00,0.00,1.00,0.00,0.00,0.00,0.00,0.00,smurf.
0,icmp,ecr_i,SF,1032,0,0,0,0,0,0,0,0,0,0,0,0,0,0,0,0,0,511,511,0.00,0.00,0.00,0.00,1.00,0.00,0.00,255,255,1.00,0.00,1.00,0.00,0.00,0.00,0.00,0.00,smurf.
0,tcp,http,SF,181,5450,0,0,0,0,0,1,0,0,0,0,0,0,0,0,0,0,8,8,0.00,0.00,0.00,0.00,1.00,0.00,0.00,9,9,1.00,0.00,0.11,0.00,0.00,0.00,0.00,0.00,normal.
0,tcp,http,SF,239,486,0,0,0,0,0,1,0,0,0,0,0,0,0,0,0,0,8,8,0.00,0.00,0.00,0.00,1.00,0.00,0.00,19,19,1.00,0.00,0.05,0.00,0.00,0.00,0.00,0.00,normal.
0,tcp,http,SF,235,1337,0,0,0,0,0,1,0,0,0,0,0,0,0,0,0,0,8,8,0.00,0.00,0.00,0.00,1.00,0.00,0.00,29,29,1.00,0.00,0.03,0.00,0.00,0.00,0.00,0.00,normal.
0,tcp,http,SF,219,1337,0,0,0,0,0,1,0,0,0,0,0,0,0,0,0,0,6,6,0.00,0.00,0.00,0.00,1.00,0.00,0.00,39,39,1.00,0.00,0.03,0.00,0.00,0.00,0.00,0.00,normal.
0,tcp,http,SF,217,2032,0,0,0,0,0,1,0,0,0,0,0,0,0,0,0,0,6,6,0.00,0.00,0.00,0.00,1.00,0.00,0.00,49,49,1.00,0.00,0.02,0.00,0.00,0.00,0.00,0.00,normal.
0,tcp,http,SF,217,2032,0,0,0,0,0,1,0,0,0,0,0,0,0,0,0,0,6,6,0.00,0.00,0.00,0.00,1.00,0.00,0.00,59,59,1.00,0.00,0.02,0.00,0.00,0.00,0.00,0.00,normal.
0,tcp,http,SF,212,1940,0,0,0,0,0,1,0,0,0,0,0,0,0,0,0,0,1,2,0.00,0.00,0.00,0.00,1.00,0.00,1.00,1,69,1.00,0.00,1.00,0.04,0.00,0.00,0.00,0.00,normal.
0,tcp,http,SF,159,4087,0,0,0,0,0,1,0,0,0,0,0,0,0,0,0,0,5,5,0.00,0.00,0.00,0.00,1.00,0.00,0.00,11,79,1.00,0.00,0.09,0.04,0.00,0.00,0.00,0.00,normal.
0,tcp,http,SF,160,170,0,0,0,0,0,1,0,0,0,0,0,0,0,0,0,0,1,1,0.00,0.00,0.00,0.00,1.00,0.00,0.00,1,255,1.00,0.00,1.00,0.05,0.00,0.00,0.00,0.00,normal.
0,tcp,http,SF,231,2281,0,0,0,0,0,1,0,0,0,0,0,0,0,0,0,0,9,10,0.00,0.00,0.00,0.00,1.00,0.00,0.20,11,255,1.00,0.00,0.09,0.04,0.00,0.00,0.00,0.00,normal.
0,tcp,http,SF,227,1247,0,0,0,0,0,1,0,0,0,0,0,0,0,0,0,0,19,20,0.00,0.00,0.00,0.00,1.00,0.00,0.10,21,255,1.00,0.00,0.05,0.04,0.00,0.00,0.00,0.00,normal.
0,tcp,http,SF,232,8766,0,0,0,0,0,1,0,0,0,0,0,0,0,0,0,0,10,10,0.00,0.00,0.00,0.00,1.00,0.00,0.00,31,255,1.00,0.00,0.03,0.04,0.00,0.00,0.00,0.00,normal.
0,tcp,http,SF,233,3609,0,0,0,0,0,1,0,0,0,0,0,0,0,0,0,0,6,6,0.00,0.00,0.00,0.00,1.00,0.00,0.00,41,255,1.00,0.00,0.02,0.04,0.00,0.00,0.00,0.00,normal.
0,tcp,http,SF,236,468,0,0,0,0,0,1,0,0,0,0,0,0,0,0,0,0,16,17,0.00,0.00,0.00,0.00,1.00,0.00,0.12,51,255,1.00,0.00,0.02,0.04,0.00,0.00,0.00,0.00,normal.
0,tcp,http,SF,322,8766,0,0,0,0,0,1,0,0,0,0,0,0,0,0,0,0,7,7,0.00,0.00,0.00,0.00,1.00,0.00,0.00,61,255,1.00,0.00,0.02,0.04,0.00,0.00,0.00,0.00,normal.
0,tcp,http,SF,327,2112,0,0,0,0,0,1,0,0,0,0,0,0,0,0,0,0,17,17,0.00,0.00,0.00,0.00,1.00,0.00,0.00,71,255,1.00,0.00,0.01,0.04,0.00,0.00,0.00,0.00,normal.
0,tcp,http,SF,225,2063,0,0,0,0,0,1,0,0,0,0,0,0,0,0,0,0,8,8,0.00,0.00,0.00,0.00,1.00,0.00,0.00,81,255,1.00,0.00,0.01,0.04,0.00,0.00,0.00,0.00,normal.
0,tcp,http,SF,224,1658,0,0,0,0,0,1,0,0,0,0,0,0,0,0,0,0,18,18,0.00,0.00,0.00,0.00,1.00,0.00,0.00,91,255,1.00,0.00,0.01,0.04,0.00,0.00,0.00,0.00,normal.
0,tcp,http,SF,224,3609,0,0,0,0,0,1,0,0,0,0,0,0,0,0,0,0,9,10,0.00,0.00,0.00,0.00,1.00,0.00,0.20,101,255,1.00,0.00,0.02,0.04,0.00,0.00,0.00,0.00,normal.
0,tcp,http,SF,230,2118,0,0,0,0,0,1,0,0,0,0,0,0,0,0,0,0,19,20,0.00,0.00,0.00,0.00,1.00,0.00,0.10,111,255,1.00,0.00,0.02,0.04,0.00,0.00,0.00,0.00,normal.
0,tcp,http,SF,288,9477,0,0,0,0,0,1,0,0,0,0,0,0,0,0,0,0,3,3,0.00,0.00,0.00,0.00,1.00,0.00,0.00,6,255,1.00,0.00,0.17,0.04,0.00,0.00,0.00,0.00,normal.
0,tcp,http,SF,195,1666,0,0,0,0,0,1,0,0,0,0,0,0,0,0,0,0,2,2,0.00,0.00,0.00,0.00,1.00,0.00,0.00,10,255,1.00,0.00,0.10,0.04,0.00,0.00,0.00,0.00,normal.
0,tcp,http,SF,340,10629,0,0,0,0,0,1,0,0,0,0,0,0,0,0,0,0,4,6,0.00,0.00,0.00,0.00,1.00,0.00,0.50,4,255,1.00,0.00,0.25,0.04,0.00,0.00,0.00,0.00,normal.
0,tcp,http,SF,338,4900,0,0,0,0,0,1,0,0,0,0,0,0,0,0,0,0,14,16,0.00,0.00,0.00,0.00,1.00,0.00,0.19,14,255,1.00,0.00,0.07,0.04,0.00,0.00,0.00,0.00,normal.
0,tcp,http,SF,223,5668,0,0,0,0,0,1,0,0,0,0,0,0,0,0,0,0,10,10,0.00,0.00,0.00,0.00,1.00,0.00,0.00,10,255,1.00,0.00,0.10,0.05,0.00,0.00,0.00,0.00,normal.
0,tcp,http,SF,223,1715,0,0,0,0,0,1,0,0,0,0,0,0,0,0,0,0,20,21,0.00,0.00,0.00,0.00,1.00,0.00,0.10,20,255,1.00,0.00,0.05,0.05,0.00,0.00,0.00,0.00,normal.
1,tcp,smtp,SF,963,330,0,0,0,0,0,1,0,0,0,0,0,0,0,0,0,0,1,2,0.00,0.00,0.00,0.00,1.00,0.00,1.00,16,118,0.69,0.25,0.06,0.03,0.00,0.00,0.00,0.00,normal.
0,tcp,finger,SF,8,366,0,0,0,0,0,0,0,0,0,0,0,0,0,0,0,0,1,1,0.00,0.00,0.00,0.00,1.00,0.00,0.00,26,18,0.15,0.15,0.08,0.17,0.00,0.00,0.00,0.00,normal.
0,tcp,smtp,SF,1912,330,0,0,0,0,0,1,0,0,0,0,0,0,0,0,0,0,1,1,0.00,0.00,0.00,0.00,1.00,0.00,0.00,66,120,0.64,0.08,0.02,0.03,0.00,0.00,0.00,0.00,normal.
1,tcp,smtp,SF,684,329,0,0,0,0,0,1,0,0,0,0,0,0,0,0,0,0,1,3,0.00,0.00,0.00,0.00,1.00,0.00,1.00,76,119,0.63,0.07,0.01,0.03,0.00,0.00,0.00,0.00,normal.
0,udp,domain_u,SF,31,0,0,0,0,0,0,0,0,0,0,0,0,0,0,0,0,0,1,5,0.00,0.00,0.00,0.00,1.00,0.00,0.40,9,36,0.22,0.22,0.22,0.11,0.00,0.00,0.00,0.00,normal.
0,tcp,smtp,SF,1679,337,0,0,0,0,0,1,0,0,0,0,0,0,1,0,0,0,1,3,0.00,0.00,0.00,0.00,1.00,0.00,1.00,4,172,0.50,0.75,0.25,0.03,0.00,0.00,0.00,0.00,normal.
0,tcp,finger,SF,9,285,0,0,0,0,0,0,0,0,0,0,0,0,0,0,0,0,1,1,0.00,0.00,0.00,0.00,1.00,0.00,0.00,14,15,0.14,0.36,0.07,0.33,0.00,0.00,0.00,0.00,normal.
27,tcp,ftp,SF,1476,4152,0,0,0,30,0,1,0,0,0,0,0,0,0,0,0,1,1,1,0.00,0.00,0.00,0.00,1.00,0.00,0.00,24,12,0.50,0.21,0.04,0.00,0.00,0.00,0.00,0.00,normal.
0,udp,domain_u,SF,29,0,0,0,0,0,0,0,0,0,0,0,0,0,0,0,0,0,1,2,0.00,0.00,0.00,0.00,1.00,0.00,1.00,34,47,0.15,0.15,0.15,0.09,0.00,0.00,0.00,0.00,normal.
0,tcp,smtp,SF,616,332,0,0,0,0,0,1,0,0,0,0,0,0,0,0,0,0,1,2,0.00,0.00,0.00,0.00,1.00,0.00,1.00,64,156,0.38,0.08,0.02,0.03,0.00,0.00,0.00,0.00,normal.
27,tcp,ftp,SF,1185,3380,0,0,0,24,0,1,0,0,0,0,0,0,0,0,0,1,1,1,0.00,0.00,0.00,0.00,1.00,0.00,0.00,74,30,0.41,0.08,0.01,0.00,0.00,0.00,0.00,0.00,normal.
29,tcp,ftp,SF,660,2070,0,0,0,14,0,1,0,0,0,0,0,0,0,0,0,1,1,1,0.00,0.00,0.00,0.00,1.00,0.00,0.00,84,36,0.43,0.07,0.01,0.00,0.00,0.00,0.00,0.00,normal.
0,udp,domain_u,SF,29,0,0,0,0,0,0,0,0,0,0,0,0,0,0,0,0,0,1,4,0.00,0.00,0.00,0.00,1.00,0.00,0.50,94,42,0.14,0.06,0.14,0.10,0.00,0.00,0.00,0.00,normal.
26,tcp,ftp,SF,723,2077,0,0,0,14,0,1,0,0,0,0,0,0,0,0,0,1,1,1,0.00,0.00,0.00,0.00,1.00,0.00,0.00,104,47,0.45,0.06,0.01,0.00,0.00,0.00,0.00,0.00,normal.
1,tcp,smtp,SF,801,333,0,0,0,0,0,1,0,0,0,0,0,0,0,0,0,0,1,3,0.00,0.00,0.00,0.00,1.00,0.00,1.00,114,135,0.34,0.05,0.01,0.02,0.00,0.00,0.00,0.00,normal.
23,tcp,ftp,SF,333,1054,0,0,0,6,0,1,0,0,0,0,0,0,0,0,0,1,1,1,0.00,0.00,0.00,0.00,1.00,0.00,0.00,124,56,0.45,0.05,0.01,0.00,0.00,0.00,0.00,0.00,normal.
26,tcp,ftp,SF,894,2586,0,0,0,18,0,1,0,0,0,0,0,0,0,0,0,1,1,1,0.00,0.00,0.00,0.00,1.00,0.00,0.00,134,62,0.46,0.04,0.01,0.00,0.00,0.00,0.00,0.00,normal.
0,tcp,http,SF,216,887,0,0,0,0,0,1,0,0,0,0,0,0,0,0,0,0,3,3,0.00,0.00,0.00,0.00,1.00,0.00,0.00,255,255,1.00,0.00,0.00,0.00,0.00,0.00,0.00,0.00,normal.
0,tcp,http,SF,157,16592,0,0,0,0,0,1,0,0,0,0,0,0,0,0,0,0,1,14,0.00,0.00,0.00,0.00,1.00,0.00,0.29,255,255,1.00,0.00,0.00,0.00,0.00,0.00,0.00,0.00,normal.
0,tcp,http,SF,207,933,0,0,0,0,0,1,0,0,0,0,0,0,0,0,0,0,11,15,0.00,0.00,0.00,0.00,1.00,0.00,0.13,255,255,1.00,0.00,0.00,0.00,0.00,0.00,0.00,0.00,normal.
0,udp,domain_u,SF,33,0,0,0,0,0,0,0,0,0,0,0,0,0,0,0,0,0,2,8,0.00,0.00,0.00,0.00,0.50,1.00,0.38,35,31,0.09,0.11,0.09,0.06,0.00,0.00,0.00,0.00,normal.
1,tcp,smtp,SF,2250,331,0,0,0,0,0,1,0,0,0,0,0,0,0,0,0,0,1,3,0.00,0.00,0.00,0.00,1.00,0.00,1.00,45,167,0.31,0.09,0.02,0.01,0.00,0.00,0.00,0.00,normal.
10,tcp,smtp,SF,942,330,0,0,0,0,0,1,0,0,0,0,0,0,0,0,0,0,1,1,0.00,0.00,0.00,0.00,1.00,0.00,0.00,55,171,0.40,0.07,0.02,0.01,0.00,0.00,0.00,0.00,normal.
0,tcp,smtp,SF,1626,329,0,0,0,0,0,1,0,0,0,0,0,0,0,0,0,0,1,2,0.00,0.00,0.00,0.00,1.00,0.00,1.00,65,170,0.46,0.09,0.02,0.01,0.00,0.00,0.00,0.00,normal.
1,tcp,smtp,SF,1058,332,0,0,0,0,0,1,0,0,0,0,0,0,0,0,0,0,1,1,0.00,0.00,0.00,0.00,1.00,0.00,0.00,75,170,0.52,0.08,0.01,0.01,0.00,0.00,0.00,0.00,normal.
0,tcp,ftp_data,SF,276,0,0,0,0,0,0,0,0,0,0,0,0,0,0,0,0,0,3,3,0.00,0.00,0.00,0.00,1.00,0.00,0.00,85,45,0.40,0.07,0.40,0.04,0.00,0.00,0.00,0.00,normal.
0,tcp,ftp_data,SF,59,0,0,0,0,0,0,0,0,0,0,0,0,0,0,0,0,0,13,13,0.00,0.00,0.00,0.00,1.00,0.00,0.00,95,55,0.46,0.06,0.46,0.04,0.00,0.00,0.00,0.00,normal.
0,udp,domain_u,SF,33,0,0,0,0,0,0,0,0,0,0,0,0,0,0,0,0,0,1,2,0.00,0.00,0.00,0.00,1.00,0.00,1.00,105,30,0.06,0.06,0.06,0.07,0.00,0.00,0.00,0.00,normal.
0,udp,domain_u,SF,33,0,0,0,0,0,0,0,0,0,0,0,0,0,0,0,0,0,1,2,0.00,0.00,0.00,0.00,1.00,0.00,1.00,115,30,0.06,0.05,0.06,0.07,0.00,0.00,0.00,0.00,normal.
2,tcp,smtp,SF,1482,332,0,0,0,0,0,1,0,0,0,0,0,0,0,0,0,0,1,1,0.00,0.00,0.00,0.00,1.00,0.00,0.00,125,149,0.48,0.05,0.01,0.01,0.00,0.00,0.00,0.00,normal.
12,tcp,smtp,SF,2606,335,0,0,0,0,0,1,0,0,0,0,0,0,0,0,0,0,1,1,0.00,0.00,0.00,0.00,1.00,0.00,0.00,135,149,0.47,0.04,0.01,0.01,0.00,0.00,0.00,0.00,normal.
1,tcp,smtp,SF,848,329,0,0,0,0,0,1,0,0,0,0,0,0,0,0,0,0,1,4,0.00,0.00,0.00,0.00,1.00,0.00,1.00,33,148,0.79,0.12,0.03,0.01,0.00,0.00,0.00,0.00,normal.
0,tcp,ftp_data,SF,607,0,0,0,0,0,0,0,0,0,0,0,0,0,0,0,0,0,2,2,0.00,0.00,0.00,0.00,1.00,0.00,0.00,43,62,0.14,0.12,0.14,0.03,0.00,0.00,0.00,0.00,normal.
11,tcp,smtp,SF,1562,332,0,0,0,0,0,1,0,0,0,0,0,0,0,0,0,0,1,1,0.00,0.00,0.00,0.00,1.00,0.00,0.00,53,138,0.58,0.09,0.02,0.01,0.00,0.00,0.00,0.00,normal.
0,tcp,ftp_data,SF,192,0,0,0,0,0,0,0,0,0,0,0,0,0,0,0,0,0,2,2,0.00,0.00,0.00,0.00,1.00,0.00,0.00,63,74,0.29,0.08,0.29,0.03,0.00,0.00,0.00,0.00,normal.
0,tcp,ftp_data,SF,879,0,0,0,0,0,0,0,0,0,0,0,0,0,0,0,0,0,8,8,0.00,0.00,0.00,0.00,1.00,0.00,0.00,73,84,0.38,0.07,0.38,0.02,0.00,0.00,0.00,0.00,normal.
0,tcp,ftp_data,SF,15876,0,0,0,0,0,0,0,0,0,0,0,0,0,0,0,0,0,18,18,0.00,0.00,0.00,0.00,1.00,0.00,0.00,83,91,0.46,0.06,0.46,0.02,0.00,0.00,0.00,0.00,normal.
0,udp,domain_u,SF,34,0,0,0,0,0,0,0,0,0,0,0,0,0,0,0,0,0,1,2,0.00,0.00,0.00,0.00,1.00,0.00,1.00,93,24,0.05,0.05,0.05,0.08,0.00,0.00,0.00,0.00,normal.
0,tcp,smtp,SF,1292,329,0,0,0,0,0,1,0,0,0,0,0,0,0,0,0,0,1,1,0.00,0.00,0.00,0.00,1.00,0.00,0.00,103,111,0.40,0.05,0.01,0.02,0.00,0.00,0.00,0.00,normal.
0,tcp,ftp_data,SF,641,0,0,0,0,0,0,0,0,0,0,0,0,0,0,0,0,0,2,2,0.00,0.00,0.00,0.00,1.00,0.00,0.00,113,103,0.49,0.04,0.49,0.02,0.00,0.00,0.00,0.00,normal.
0,tcp,ftp_data,SF,10261,0,0,0,0,0,0,0,0,0,0,0,0,0,0,0,0,0,9,9,0.00,0.00,0.00,0.00,1.00,0.00,0.00,123,113,0.53,0.04,0.53,0.02,0.00,0.00,0.00,0.00,normal.
10,tcp,smtp,SF,688,331,0,0,0,0,0,1,0,0,0,0,0,0,0,0,0,0,1,1,0.00,0.00,0.00,0.00,1.00,0.00,0.00,133,96,0.38,0.04,0.01,0.02,0.00,0.00,0.00,0.00,normal.
0,udp,domain_u,SF,34,0,0,0,0,0,0,0,0,0,0,0,0,0,0,0,0,0,1,2,0.00,0.00,0.00,0.00,1.00,0.00,1.00,143,22,0.04,0.03,0.04,0.09,0.00,0.00,0.00,0.00,normal.
2,tcp,smtp,SF,1950,331,0,0,0,0,0,1,0,0,0,0,0,0,0,0,0,0,2,2,0.00,0.00,0.00,0.00,0.50,1.00,1.00,153,99,0.42,0.04,0.01,0.02,0.00,0.00,0.00,0.00,normal.
0,tcp,telnet,S0,0,0,0,0,0,0,0,0,0,0,0,0,0,0,0,0,0,0,6,5,0.83,1.00,0.00,0.00,0.83,0.33,0.00,5,6,1.00,0.00,0.20,0.33,1.00,0.83,0.00,0.00,neptune.
0,tcp,telnet,S0,0,0,0,0,0,0,0,0,0,0,0,0,0,0,0,0,0,0,16,15,0.94,1.00,0.00,0.00,0.94,0.12,0.00,15,16,1.00,0.00,0.07,0.12,1.00,0.94,0.00,0.00,neptune.
0,tcp,private,S0,0,0,0,0,0,0,0,0,0,0,0,0,0,0,0,0,0,0,63,1,1.00,1.00,0.00,0.00,0.02,0.08,0.00,1,1,1.00,0.00,1.00,0.00,1.00,1.00,0.00,0.00,neptune.
0,tcp,private,S0,0,0,0,0,0,0,0,0,0,0,0,0,0,0,0,0,0,0,110,8,1.00,1.00,0.00,0.00,0.07,0.06,0.00,11,8,0.73,0.27,0.09,0.00,1.00,1.00,0.00,0.00,neptune.
0,tcp,private,S0,0,0,0,0,0,0,0,0,0,0,0,0,0,0,0,0,0,0,119,17,1.00,1.00,0.00,0.00,0.14,0.06,0.00,21,17,0.81,0.14,0.05,0.00,1.00,1.00,0.00,0.00,neptune.
0,tcp,private,S0,0,0,0,0,0,0,0,0,0,0,0,0,0,0,0,0,0,0,128,6,1.00,1.00,0.00,0.00,0.05,0.06,0.00,31,6,0.19,0.13,0.03,0.00,1.00,1.00,0.00,0.00,neptune.
0,tcp,private,S0,0,0,0,0,0,0,0,0,0,0,0,0,0,0,0,0,0,0,70,8,1.00,1.00,0.00,0.00,0.11,0.07,0.00,251,8,0.03,0.06,0.00,0.00,1.00,1.00,0.00,0.00,neptune.
0,tcp,smtp,S0,0,0,0,0,0,0,0,0,0,0,0,0,0,0,0,0,0,0,52,4,1.00,0.75,0.00,0.00,0.06,0.10,0.50,255,3,0.01,0.06,0.00,0.00,1.00,1.00,0.00,0.00,neptune.
0,tcp,private,S0,0,0,0,0,0,0,0,0,0,0,0,0,0,0,0,0,0,0,58,9,1.00,1.00,0.00,0.00,0.16,0.07,0.00,255,9,0.04,0.06,0.00,0.00,1.00,1.00,0.00,0.00,neptune.
0,tcp,private,S0,0,0,0,0,0,0,0,0,0,0,0,0,0,0,0,0,0,0,67,7,1.00,1.00,0.00,0.00,0.10,0.07,0.00,255,7,0.03,0.06,0.00,0.00,1.00,1.00,0.00,0.00,neptune.
0,tcp,private,S0,0,0,0,0,0,0,0,0,0,0,0,0,0,0,0,0,0,0,76,12,1.00,1.00,0.00,0.00,0.16,0.07,0.00,255,12,0.05,0.06,0.00,0.00,1.00,1.00,0.00,0.00,neptune.
0,tcp,private,S0,0,0,0,0,0,0,0,0,0,0,0,0,0,0,0,0,0,0,85,20,1.00,1.00,0.00,0.00,0.24,0.06,0.00,255,20,0.08,0.06,0.00,0.00,1.00,1.00,0.00,0.00,neptune.
0,tcp,private,S0,0,0,0,0,0,0,0,0,0,0,0,0,0,0,0,0,0,0,72,9,1.00,1.00,0.00,0.00,0.12,0.07,0.00,255,9,0.04,0.06,0.00,0.00,1.00,1.00,0.00,0.00,neptune.
0,tcp,private,S0,0,0,0,0,0,0,0,0,0,0,0,0,0,0,0,0,0,0,94,9,1.00,1.00,0.00,0.00,0.10,0.07,0.00,255,9,0.04,0.07,0.00,0.00,1.00,1.00,0.00,0.00,neptune.
0,tcp,private,S0,0,0,0,0,0,0,0,0,0,0,0,0,0,0,0,0,0,0,103,17,1.00,1.00,0.00,0.00,0.17,0.07,0.00,255,17,0.07,0.07,0.00,0.00,1.00,1.00,0.00,0.00,neptune.
0,tcp,private,S0,0,0,0,0,0,0,0,0,0,0,0,0,0,0,0,0,0,0,112,20,1.00,1.00,0.00,0.00,0.18,0.06,0.00,255,20,0.08,0.07,0.00,0.00,1.00,1.00,0.00,0.00,neptune.
0,tcp,private,S0,0,0,0,0,0,0,0,0,0,0,0,0,0,0,0,0,0,0,73,9,1.00,1.00,0.00,0.00,0.12,0.07,0.00,255,9,0.04,0.07,0.00,0.00,1.00,1.00,0.00,0.00,neptune.
0,tcp,private,S0,0,0,0,0,0,0,0,0,0,0,0,0,0,0,0,0,0,0,82,11,1.00,1.00,0.00,0.00,0.13,0.06,0.00,255,11,0.04,0.06,0.00,0.00,1.00,1.00,0.00,0.00,neptune.
0,tcp,private,S0,0,0,0,0,0,0,0,0,0,0,0,0,0,0,0,0,0,0,91,20,1.00,1.00,0.00,0.00,0.22,0.05,0.00,255,20,0.08,0.06,0.00,0.00,1.00,1.00,0.00,0.00,neptune.
0,tcp,nnsp,S0,0,0,0,0,0,0,0,0,0,0,0,0,0,0,0,0,0,0,70,7,1.00,1.00,0.00,0.00,0.10,0.07,0.00,255,7,0.03,0.07,0.00,0.00,1.00,1.00,0.00,0.00,neptune.
0,tcp,private,S0,0,0,0,0,0,0,0,0,0,0,0,0,0,0,0,0,0,0,79,3,1.00,1.00,0.00,0.00,0.04,0.08,0.00,255,3,0.01,0.07,0.00,0.00,1.00,1.00,0.00,0.00,neptune.
0,tcp,private,S0,0,0,0,0,0,0,0,0,0,0,0,0,0,0,0,0,0,0,88,1,1.00,1.00,0.00,0.00,0.01,0.08,0.00,255,1,0.00,0.07,0.00,0.00,1.00,1.00,0.00,0.00,neptune.
0,tcp,private,S0,0,0,0,0,0,0,0,0,0,0,0,0,0,0,0,0,0,0,97,10,1.00,1.00,0.00,0.00,0.10,0.07,0.00,255,10,0.04,0.07,0.00,0.00,1.00,1.00,0.00,0.00,neptune.
0,tcp,private,S0,0,0,0,0,0,0,0,0,0,0,0,0,0,0,0,0,0,0,106,19,1.00,1.00,0.00,0.00,0.18,0.07,0.00,255,19,0.07,0.06,0.00,0.00,1.00,1.00,0.00,0.00,neptune.
0,tcp,private,S0,0,0,0,0,0,0,0,0,0,0,0,0,0,0,0,0,0,0,103,3,1.00,1.00,0.00,0.00,0.03,0.07,0.00,255,3,0.01,0.06,0.00,0.00,1.00,1.00,0.00,0.00,neptune.
0,tcp,private,S0,0,0,0,0,0,0,0,0,0,0,0,0,0,0,0,0,0,0,113,8,1.00,1.00,0.00,0.00,0.07,0.06,0.00,255,8,0.03,0.06,0.00,0.00,1.00,1.00,0.00,0.00,neptune.
0,tcp,private,S0,0,0,0,0,0,0,0,0,0,0,0,0,0,0,0,0,0,0,123,18,1.00,1.00,0.00,0.00,0.15,0.06,0.00,255,18,0.07,0.06,0.00,0.00,1.00,1.00,0.00,0.00,neptune.
0,tcp,private,S0,0,0,0,0,0,0,0,0,0,0,0,0,0,0,0,0,0,0,133,8,1.00,1.00,0.00,0.00,0.06,0.06,0.00,255,8,0.03,0.06,0.00,0.00,1.00,1.00,0.00,0.00,neptune.
0,tcp,private,S0,0,0,0,0,0,0,0,0,0,0,0,0,0,0,0,0,0,0,143,18,1.00,1.00,0.00,0.00,0.13,0.06,0.00,255,18,0.07,0.06,0.00,0.00,1.00,1.00,0.00,0.00,neptune.
0,tcp,private,S0,0,0,0,0,0,0,0,0,0,0,0,0,0,0,0,0,0,0,103,3,1.00,1.00,0.00,0.00,0.03,0.07,0.00,255,3,0.01,0.06,0.00,0.00,1.00,1.00,0.00,0.00,neptune.
0,tcp,private,S0,0,0,0,0,0,0,0,0,0,0,0,0,0,0,0,0,0,0,113,10,1.00,1.00,0.00,0.00,0.09,0.07,0.00,255,10,0.04,0.06,0.00,0.00,1.00,1.00,0.00,0.00,neptune.
0,tcp,private,S0,0,0,0,0,0,0,0,0,0,0,0,0,0,0,0,0,0,0,123,20,1.00,1.00,0.00,0.00,0.16,0.07,0.00,255,20,0.08,0.06,0.00,0.00,1.00,1.00,0.00,0.00,neptune.
0,tcp,private,S0,0,0,0,0,0,0,0,0,0,0,0,0,0,0,0,0,0,0,133,10,1.00,1.00,0.00,0.00,0.08,0.07,0.00,255,10,0.04,0.06,0.00,0.00,1.00,1.00,0.00,0.00,neptune.
0,tcp,private,S0,0,0,0,0,0,0,0,0,0,0,0,0,0,0,0,0,0,0,143,20,1.00,1.00,0.00,0.00,0.14,0.06,0.00,255,20,0.08,0.06,0.00,0.00,1.00,1.00,0.00,0.00,neptune.
0,tcp,private,S0,0,0,0,0,0,0,0,0,0,0,0,0,0,0,0,0,0,0,113,18,1.00,1.00,0.00,0.00,0.16,0.07,0.00,255,18,0.07,0.06,0.00,0.00,1.00,1.00,0.00,0.00,neptune.
0,tcp,http_443,S0,0,0,0,0,0,0,0,0,0,0,0,0,0,0,0,0,0,0,123,8,1.00,1.00,0.00,0.00,0.07,0.07,0.00,255,8,0.03,0.06,0.00,0.00,1.00,1.00,0.00,0.00,neptune.
0,tcp,http_443,S0,0,0,0,0,0,0,0,0,0,0,0,0,0,0,0,0,0,0,133,17,1.00,1.00,0.00,0.00,0.13,0.07,0.00,255,17,0.07,0.06,0.00,0.00,1.00,1.00,0.00,0.00,neptune.
0,tcp,private,S0,0,0,0,0,0,0,0,0,0,0,0,0,0,0,0,0,0,0,143,14,1.00,1.00,0.00,0.00,0.10,0.06,0.00,255,14,0.05,0.06,0.00,0.00,1.00,1.00,0.00,0.00,neptune.
0,tcp,private,S0,0,0,0,0,0,0,0,0,0,0,0,0,0,0,0,0,0,0,103,3,1.00,1.00,0.00,0.00,0.03,0.07,0.00,255,3,0.01,0.06,0.00,0.00,1.00,1.00,0.00,0.00,neptune.
0,tcp,private,S0,0,0,0,0,0,0,0,0,0,0,0,0,0,0,0,0,0,0,113,13,1.00,1.00,0.00,0.00,0.12,0.06,0.00,255,13,0.05,0.06,0.00,0.00,1.00,1.00,0.00,0.00,neptune.
0,tcp,private,S0,0,0,0,0,0,0,0,0,0,0,0,0,0,0,0,0,0,0,123,10,1.00,1.00,0.00,0.00,0.08,0.07,0.00,255,10,0.04,0.06,0.00,0.00,1.00,1.00,0.00,0.00,neptune.
0,tcp,finger,S0,0,0,1,0,0,0,0,0,0,0,0,0,0,0,0,0,0,0,1,1,1.00,1.00,0.00,0.00,1.00,0.00,0.00,1,8,1.00,0.00,1.00,0.38,1.00,0.12,0.00,0.00,land.
0,tcp,finger,S0,0,0,1,0,0,0,0,0,0,0,0,0,0,0,0,0,0,0,1,2,1.00,1.00,0.00,0.00,1.00,0.00,1.00,1,1,1.00,0.00,1.00,0.00,1.00,1.00,0.00,0.00,land.
0,tcp,finger,S0,0,0,1,0,0,0,0,0,0,0,0,0,0,0,0,0,0,0,1,1,1.00,1.00,0.00,0.00,1.00,0.00,0.00,1,6,1.00,0.00,1.00,0.33,1.00,0.17,0.00,0.00,land.
0,tcp,finger,S0,0,0,1,0,0,0,0,0,0,0,0,0,0,0,0,0,0,0,1,2,1.00,1.00,0.00,0.00,1.00,0.00,1.00,12,9,0.08,0.17,0.08,0.33,0.58,0.11,0.00,0.00,land.
0,tcp,finger,S0,0,0,1,0,0,0,0,0,0,0,0,0,0,0,0,0,0,0,1,2,1.00,1.00,0.00,0.00,1.00,0.00,1.00,1,1,1.00,0.00,1.00,0.00,1.00,1.00,0.00,0.00,land.
0,tcp,finger,S0,0,0,1,0,0,0,0,0,0,0,0,0,0,0,0,0,0,0,1,2,1.00,1.00,0.00,0.00,1.00,0.00,1.00,1,2,1.00,0.00,1.00,1.00,1.00,1.00,0.00,0.00,land.
0,tcp,finger,S0,0,0,1,0,0,0,0,0,0,0,0,0,0,0,0,0,0,0,1,2,1.00,1.00,0.00,0.00,1.00,0.00,1.00,1,3,1.00,0.00,1.00,1.00,1.00,1.00,0.00,0.00,land.
0,tcp,finger,S0,0,0,1,0,0,0,0,0,0,0,0,0,0,0,0,0,0,0,1,2,1.00,1.00,0.00,0.00,1.00,0.00,1.00,1,4,1.00,0.00,1.00,1.00,1.00,1.00,0.00,0.00,land.
0,tcp,finger,S0,0,0,1,0,0,0,0,0,0,0,0,0,0,0,0,0,0,0,1,2,1.00,1.00,0.00,0.00,1.00,0.00,1.00,1,5,1.00,0.00,1.00,1.00,1.00,1.00,0.00,0.00,land.
0,tcp,finger,S0,0,0,1,0,0,0,0,0,0,0,0,0,0,0,0,0,0,0,1,2,1.00,1.00,0.00,0.00,1.00,0.00,1.00,1,6,1.00,0.00,1.00,0.33,1.00,0.17,0.00,0.00,land.
0,tcp,finger,S0,0,0,1,0,0,0,0,0,0,0,0,0,0,0,0,0,0,0,1,1,1.00,1.00,0.00,0.00,1.00,0.00,0.00,1,8,1.00,0.00,1.00,0.25,1.00,0.12,0.00,0.00,land.
0,tcp,finger,S0,0,0,1,0,0,0,0,0,0,0,0,0,0,0,0,0,0,0,1,2,1.00,1.00,0.00,0.00,1.00,0.00,1.00,1,6,1.00,0.00,1.00,0.33,1.00,0.17,0.00,0.00,land.
0,tcp,finger,S0,0,0,1,0,0,0,0,0,0,0,0,0,0,0,0,0,0,0,1,2,1.00,1.00,0.00,0.00,1.00,0.00,1.00,1,2,1.00,0.00,1.00,1.00,1.00,0.50,0.00,0.00,land.
0,tcp,finger,S0,0,0,1,0,0,0,0,0,0,0,0,0,0,0,0,0,0,0,1,2,1.00,1.00,0.00,0.00,1.00,0.00,1.00,1,3,1.00,0.00,1.00,1.00,1.00,0.67,0.00,0.00,land.
0,tcp,finger,S0,0,0,1,0,0,0,0,0,0,0,0,0,0,0,0,0,0,0,1,2,1.00,1.00,0.00,0.00,1.00,0.00,1.00,1,4,1.00,0.00,1.00,1.00,1.00,0.75,0.00,0.00,land.
0,tcp,finger,S0,0,0,1,0,0,0,0,0,0,0,0,0,0,0,0,0,0,0,1,2,1.00,1.00,0.00,0.00,1.00,0.00,1.00,1,5,1.00,0.00,1.00,1.00,1.00,0.80,0.00,0.00,land.
0,tcp,finger,S0,0,0,1,0,0,0,0,0,0,0,0,0,0,0,0,0,0,0,1,2,1.00,1.00,0.00,0.00,1.00,0.00,1.00,1,6,1.00,0.00,1.00,1.00,1.00,0.83,0.00,0.00,land.
0,tcp,finger,S0,0,0,1,0,0,0,0,0,0,0,0,0,0,0,0,0,0,0,78,2,1.00,1.00,0.00,0.00,0.01,0.08,1.00,1,6,1.00,0.00,1.00,0.50,1.00,0.17,0.00,0.00,land.
0,tcp,telnet,S0,0,0,1,0,0,0,0,0,0,0,0,0,0,0,0,0,0,0,1,1,1.00,1.00,0.00,0.00,1.00,0.00,0.00,1,1,1.00,0.00,1.00,0.00,1.00,1.00,0.00,0.00,land.
0,tcp,finger,S0,0,0,1,0,0,0,0,0,0,0,0,0,0,0,0,0,0,0,1,2,1.00,1.00,0.00,0.00,1.00,0.00,1.00,15,1,0.07,0.20,0.07,0.00,0.07,1.00,0.07,0.00,land.
0,tcp,finger,S0,0,0,1,0,0,0,0,0,0,0,0,0,0,0,0,0,0,0,3,2,0.33,1.00,0.67,0.00,0.33,1.00,1.00,16,2,0.12,0.19,0.12,0.00,0.12,1.00,0.06,0.00,land.
0,tcp,http,SF,54540,8314,0,0,0,2,0,1,1,0,0,0,0,0,0,0,0,0,1,2,0.00,0.00,0.00,0.50,1.00,0.00,1.00,1,1,1.00,0.00,1.00,0.00,0.00,0.00,0.00,0.00,back.
0,tcp,http,SF,54540,8314,0,0,0,2,0,1,1,0,0,0,0,0,0,0,0,0,2,3,0.00,0.00,0.00,0.33,1.00,0.00,0.67,2,2,1.00,0.00,0.50,0.00,0.00,0.00,0.00,0.00,back.
0,tcp,http,SF,54540,8314,0,0,0,2,0,1,1,0,0,0,0,0,0,0,0,0,3,4,0.00,0.00,0.00,0.25,1.00,0.00,0.50,3,3,1.00,0.00,0.33,0.00,0.00,0.00,0.00,0.00,back.
0,tcp,http,SF,54540,8314,0,0,0,2,0,1,1,0,0,0,0,0,0,0,0,0,4,4,0.00,0.00,0.00,0.00,1.00,0.00,0.00,4,4,1.00,0.00,0.25,0.00,0.00,0.00,0.00,0.00,back.
0,tcp,http,SF,54540,8314,0,0,0,2,0,1,1,0,0,0,0,0,0,0,0,0,4,4,0.00,0.00,0.00,0.00,1.00,0.00,0.00,5,5,1.00,0.00,0.20,0.00,0.00,0.00,0.00,0.00,back.
0,tcp,http,SF,54540,8314,0,0,0,2,0,1,1,0,0,0,0,0,0,0,0,0,5,5,0.00,0.00,0.00,0.00,1.00,0.00,0.00,6,6,1.00,0.00,0.17,0.00,0.00,0.00,0.00,0.00,back.
0,tcp,http,RSTR,54540,8314,0,0,0,2,0,1,1,0,0,0,0,0,0,0,0,0,4,4,0.00,0.00,0.25,0.25,1.00,0.00,0.00,7,7,1.00,0.00,0.14,0.00,0.00,0.00,0.14,0.14,back.
0,tcp,http,SF,54540,8314,0,0,0,2,0,1,1,0,0,0,0,0,0,0,0,0,4,4,0.00,0.00,0.00,0.00,1.00,0.00,0.00,44,44,1.00,0.00,0.02,0.00,0.00,0.00,0.05,0.05,back.
0,tcp,http,SF,54540,8314,0,0,0,2,0,1,1,0,0,0,0,0,0,0,0,0,4,4,0.00,0.00,0.00,0.00,1.00,0.00,0.00,45,45,1.00,0.00,0.02,0.00,0.00,0.00,0.04,0.04,back.
0,tcp,http,SF,54540,8314,0,0,0,2,0,1,1,0,0,0,0,0,0,0,0,0,5,5,0.00,0.00,0.00,0.00,1.00,0.00,0.00,46,46,1.00,0.00,0.02,0.00,0.00,0.00,0.04,0.04,back.
0,tcp,http,SF,54540,8314,0,0,0,2,0,1,1,0,0,0,0,0,0,0,0,0,4,4,0.00,0.00,0.00,0.00,1.00,0.00,0.00,47,47,1.00,0.00,0.02,0.00,0.00,0.00,0.04,0.04,back.
0,tcp,http,SF,54540,8314,0,0,0,2,0,1,1,0,0,0,0,0,0,0,0,0,4,4,0.00,0.00,0.00,0.00,1.00,0.00,0.00,48,48,1.00,0.00,0.02,0.00,0.00,0.00,0.04,0.04,back.
0,tcp,private,S0,0,0,0,0,0,0,0,0,0,0,0,0,0,0,0,0,0,0,123,10,1.00,1.00,0.00,0.00,0.08,0.07,0.00,255,10,0.04,0.06,0.00,0.00,1.00,1.00,0.00,0.00,neptune.
0,tcp,private,S0,0,0,0,0,0,0,0,0,0,0,0,0,0,0,0,0,0,0,133,20,1.00,1.00,0.00,0.00,0.15,0.06,0.00,255,20,0.08,0.06,0.00,0.00,1.00,1.00,0.00,0.00,neptune.
0,tcp,private,S0,0,0,0,0,0,0,0,0,0,0,0,0,0,0,0,0,0,0,143,14,1.00,1.00,0.00,0.00,0.10,0.06,0.00,255,14,0.05,0.06,0.00,0.00,1.00,1.00,0.00,0.00,neptune.
0,tcp,private,S0,0,0,0,0,0,0,0,0,0,0,0,0,0,0,0,0,0,0,103,3,1.00,1.00,0.00,0.00,0.03,0.07,0.00,255,3,0.01,0.06,0.00,0.00,1.00,1.00,0.00,0.00,neptune.
0,tcp,private,S0,0,0,0,0,0,0,0,0,0,0,0,0,0,0,0,0,0,0,234,4,1.00,1.00,0.00,0.00,0.02,0.06,0.00,255,4,0.02,0.07,0.00,0.00,1.00,1.00,0.00,0.00,neptune.
0,tcp,private,S0,0,0,0,0,0,0,0,0,0,0,0,0,0,0,0,0,0,0,244,18,1.00,1.00,0.00,0.00,0.07,0.05,0.00,255,18,0.07,0.05,0.00,0.00,1.00,1.00,0.00,0.00,neptune.
0,tcp,private,S0,0,0,0,0,0,0,0,0,0,0,0,0,0,0,0,0,0,0,254,14,1.00,1.00,0.00,0.00,0.06,0.05,0.00,255,14,0.05,0.05,0.00,0.00,1.00,1.00,0.00,0.00,neptune.
0,tcp,private,S0,0,0,0,0,0,0,0,0,0,0,0,0,0,0,0,0,0,0,264,10,1.00,1.00,0.00,0.00,0.04,0.05,0.00,255,10,0.04,0.05,0.00,0.00,1.00,1.00,0.00,0.00,neptune.
0,tcp,private,S0,0,0,0,0,0,0,0,0,0,0,0,0,0,0,0,0,0,0,274,24,1.00,1.00,0.00,0.00,0.09,0.05,0.00,255,24,0.09,0.05,0.00,0.00,1.00,1.00,0.00,0.00,neptune.
0,tcp,private,S0,0,0,0,0,0,0,0,0,0,0,0,0,0,0,0,0,0,0,284,19,1.00,1.00,0.00,0.00,0.07,0.05,0.00,255,19,0.07,0.05,0.00,0.00,1.00,1.00,0.00,0.00,neptune.
0,tcp,private,S0,0,0,0,0,0,0,0,0,0,0,0,0,0,0,0,0,0,0,294,16,1.00,1.00,0.00,0.00,0.05,0.05,0.00,255,16,0.06,0.05,0.00,0.00,1.00,1.00,0.00,0.00,neptune.
0,tcp,http,RSTR,26604,8314,0,0,0,2,0,1,1,0,0,0,0,0,0,0,0,0,4,4,0.00,0.00,0.50,0.50,1.00,0.00,0.00,255,229,0.90,0.01,0.00,0.00,0.00,0.00,0.02,0.02,back.
0,tcp,http,RSTR,16384,8314,0,0,0,2,0,1,1,0,0,0,0,0,0,0,0,0,5,5,0.00,0.00,0.60,0.60,1.00,0.00,0.00,255,230,0.90,0.01,0.00,0.00,0.00,0.00,0.02,0.02,back.
0,tcp,http,SF,54540,8314,0,0,0,2,0,1,1,0,0,0,0,0,0,0,0,0,4,4,0.00,0.00,0.50,0.50,1.00,0.00,0.00,255,230,0.90,0.01,0.00,0.00,0.00,0.00,0.02,0.02,back.
0,tcp,http,SF,54540,8314,0,0,0,2,0,1,1,0,0,0,0,0,0,0,0,0,4,4,0.00,0.00,0.50,0.50,1.00,0.00,0.00,255,230,0.90,0.01,0.00,0.00,0.00,0.00,0.02,0.02,back.
0,tcp,http,SF,54540,8314,0,0,0,2,0,1,1,0,0,0,0,0,0,0,0,0,5,5,0.00,0.00,0.40,0.40,1.00,0.00,0.00,255,230,0.90,0.01,0.00,0.00,0.00,0.00,0.02,0.02,back.
0,tcp,http,SF,54540,8314,0,0,0,2,0,1,1,0,0,0,0,0,0,0,0,0,4,4,0.00,0.00,0.00,0.00,1.00,0.00,0.00,255,230,0.90,0.01,0.00,0.00,0.00,0.00,0.02,0.02,back.
0,tcp,http,SF,54540,8314,0,0,0,2,0,1,1,0,0,0,0,0,0,0,0,0,5,5,0.00,0.00,0.00,0.00,1.00,0.00,0.00,255,230,0.90,0.01,0.00,0.00,0.00,0.00,0.02,0.02,back.
0,tcp,http,SF,54540,8314,0,0,0,2,0,1,1,0,0,0,0,0,0,0,0,0,5,5,0.00,0.00,0.00,0.00,1.00,0.00,0.00,255,230,0.90,0.01,0.00,0.00,0.00,0.00,0.02,0.02,back.
0,tcp,http,SF,54540,8314,0,0,0,2,0,1,1,0,0,0,0,0,0,0,0,0,6,6,0.00,0.00,0.00,0.00,1.00,0.00,0.00,255,230,0.90,0.01,0.00,0.00,0.00,0.00,0.02,0.02,back.
0,tcp,http,SF,54540,8314,0,0,0,2,0,1,1,0,0,0,0,0,0,0,0,0,5,5,0.00,0.00,0.00,0.00,1.00,0.00,0.00,255,230,0.90,0.01,0.00,0.00,0.00,0.00,0.02,0.02,back.
0,tcp,http,SF,54540,8314,0,0,0,2,0,1,1,0,0,0,0,0,0,0,0,0,6,6,0.00,0.00,0.00,0.00,1.00,0.00,0.00,255,230,0.90,0.01,0.00,0.00,0.00,0.00,0.02,0.02,back.
0,tcp,http,SF,54540,8314,0,0,0,2,0,1,1,0,0,0,0,0,0,0,0,0,5,5,0.00,0.00,0.00,0.00,1.00,0.00,0.00,255,230,0.90,0.01,0.00,0.00,0.00,0.00,0.02,0.02,back.
0,tcp,http,SF,54540,8314,0,0,0,2,0,1,1,0,0,0,0,0,0,0,0,0,4,4,0.00,0.00,0.00,0.00,1.00,0.00,0.00,255,230,0.90,0.01,0.00,0.00,0.00,0.00,0.02,0.02,back.
0,tcp,http,SF,54540,8314,0,0,0,2,0,1,1,0,0,0,0,0,0,0,0,0,5,5,0.00,0.00,0.00,0.00,1.00,0.00,0.00,255,230,0.90,0.01,0.00,0.00,0.00,0.00,0.02,0.02,back.
0,tcp,http,SF,54540,8314,0,0,0,2,0,1,1,0,0,0,0,0,0,0,0,0,4,4,0.00,0.00,0.00,0.00,1.00,0.00,0.00,255,230,0.90,0.01,0.00,0.00,0.00,0.00,0.02,0.02,back.