69991 17706 132581 131712
33647 62464 76451 75504
3299 35280 113249 112560
6203 155029 778207 776440
80657 367240 470563 469168
623641 162914 656069 654444
230387 92563 271477 270400
4229 8132 25049 24336
436913 450331 509407 507976
279119 252828 305909 304800
308929 182852 556471 554944
184043 187416 230903 229680
17387 4781 31783 30888
21001 282505 367067 365856
461 362 763 648
7639 15958 19169 18480
407369 191402 533153 531648
51563 12076 135557 134796
31477 6035 46127 45696
21089 19016 25019 24696
107021 62701 108487 107640
355819 435289 477749 476364
9221 90544 97289 96660
63031 64858 135917 135036
3037 58283 87817 87040
55949 68271 94637 93600
42463 33641 69287 68736
41 180 493 448
15187 109815 266657 265620
29429 5664 106247 105480
10729 76816 119081 118272
487387 252799 505423 504000
505369 319536 836483 834648
59693 121202 201793 200880
81331 84294 116939 116256
919 6502 13271 12672
87629 8542 105403 104328
557 2262 2353 2160
132749 56880 447721 446292
32563 52635 54209 53700
617 444 2165 1728
167809 6891 204223 203320
6373 1475 7087 6696
167009 466 199229 198240
30553 2196 59401 58900
8501 12855 44347 43560
135731 207168 335549 334236
254437 13729 467461 466092
60617 95682 141313 140500
131231 312248 542833 541348
