64109 88978 125701 124992
1031 1079 1945 1552
97103 86929 126253 125500
140681 315475 553183 551680
55787 205484 338381 337212
58211 2123 77107 76096
863 8851 36403 35728
492113 284106 575521 574000
6053 38696 39737 39156
487769 441668 530003 528528
44267 1536 53947 53136
141551 5526 186521 185652
6299 3905 16483 16120
328379 72556 769277 767520
41 742 1673 1428
8291 8635 11023 10800
15787 35852 73357 72576
84221 77884 151819 150696
2269 1811 3437 2940
70753 36142 127199 126480
148861 328448 382153 380800
593 3321 4333 3708
4993 42764 70097 69540
86143 104402 189971 189000
67247 4036 80723 79728
89087 243374 283319 282240
73 1797 3385 2704
115259 38571 174523 173448
20549 44976 128701 127804
3617 18927 20557 20160
15319 23106 72419 71760
163841 119373 164851 164032
27883 65221 70097 69540
123953 556182 591737 590196
11 345 629 576
727 1893 1941 1292
8081 135865 401153 399828
9059 33550 36679 35784
424601 651459 819703 817888
2903 66554 114943 113968
18523 2198 19651 19152
10313 26055 28757 28416
270223 207044 760973 759228
176237 36921 194393 193488
6311 2691 23263 22680
117571 4293 156811 155800
42451 31544 97507 96880
144829 394759 749977 748240
1447 31369 77411 76824
15193 24679 92843 92208
