14753 11675 35239 34840
1483 8520 97067 96096
58151 15804 177139 176256
5059 6492 9217 8496
41203 13183 101083 100440
112181 98353 168661 167692
21011 142514 335789 334560
142711 107617 224551 223600
401743 295786 620273 618660
18517 4473 22499 22200
18701 86641 88391 87672
2069 170 2831 2664
130633 293524 586307 584760
190979 45346 195227 194040
15493 93586 135073 134320
15823 30349 34271 33432
49367 97473 108683 108000
22811 4250 28079 27384
237163 60592 260123 258888
53411 38174 90913 90288
80491 40559 233171 232200
134677 11546 254503 253368
128483 105434 137407 136656
349 793 1006 502
390389 58777 464041 462672
719 9442 46433 45588
794957 515445 862717 860860
112291 117850 137903 137088
118747 88246 143863 143080
596507 107347 694691 693000
503 11154 36719 36144
107269 111776 218237 217056
31219 7207 44599 44064
14887 2249 28531 28152
255977 136085 274181 273132
1427 4256 5579 4776
1193 2087 2327 2136
81199 81550 86299 85680
46091 97220 186631 185472
71549 115343 118721 117972
