95107 20978 326371 325144
624149 301574 950141 948192
42487 16944 122821 122092
128959 150176 154381 153532
1783 19461 19967 19440
125219 145362 549047 547560
16759 13854 18971 18600
4513 7367 12059 11640
132701 30304 150547 149400
3181 4645 24139 23800
8297 243 29521 28912
2179 5222 6349 5436
4003 1101 30301 29952
520609 212794 768283 766528
2927 106069 107587 106920
18947 200354 891581 889692
199 330 698 348
11083 1812 26629 25740
14851 10036 16271 15912
12893 15603 25451 24600
33479 20430 35669 34944
156361 48105 255953 254820
86257 69977 88687 87880
58991 3288 62707 61776
155231 43749 342161 340992
