194647 169489 217999 216936
122207 112784 210871 209952
141629 261919 417091 415800
86287 152494 182383 181440
12527 20719 25651 25312
52223 38560 54203 53328
406183 396944 510641 509172
14479 17893 26057 25620
18233 117737 158839 157824
1451 1693 2489 2340
144731 68415 192221 191100
24443 164001 327781 326592
115783 105169 141997 140896
56659 10693 83729 82800
43 246 1735 1384
73727 98449 163073 162240
75329 13930 191117 190236
131933 220077 376451 375192
135119 121434 182527 181656
9719 30656 31417 30976
166823 198159 382259 381000
148949 199063 212521 211600
28541 30082 229513 228420
84163 165679 188183 187128
17959 14544 266843 265728
3709 8123 13753 12928
59999 48433 99301 98604
845771 781804 861103 859248
41981 56156 57821 56892
345689 509595 585161 583632
2677 18186 45301 44704
17863 62279 95023 94288
308081 345123 467807 466440
49741 28125 390283 388960
42569 366445 456221 454812
40787 47499 53059 52416
16519 38935 76709 75660
2621 11275 11441 10752
603569 108581 626737 625140
179 654 706 352
11927 13429 51809 51204
30559 46876 47921 47472
12479 147382 236191 235000
16447 9576 27887 27456
8329 36392 47023 46168
31891 66720 77123 76560
310831 195132 361567 360360
19603 77522 108197 107520
281189 179971 563659 562120
98563 242712 621077 619500
